GAA - Arthur Marques
…
Data manipulation

You can select columns and filter data in an ease and readable syntax

select(
  filter(globalTemperatures, dt > as.Date("1800-01-01")), 
  dt, LandAverageTemperature
)

# A tibble: 2,591 x 2
   dt         LandAverageTemperature
   <date>                      <dbl>
 1 1800-02-01                   3.63
 2 1800-03-01                   4.45
 3 1800-04-01                   9.12
 4 1800-05-01                  11.1 
 5 1800-06-01                  13.6 
 6 1800-07-01                  13.8 
 7 1800-08-01                  13.6 
 8 1800-09-01                  10.8 
 9 1800-10-01                   9.47
10 1800-11-01                   5.57
# ... with 2,581 more rows
…
Hypothesis Testing

How is the temperature around our neighbours?

globalTemperaturesByCountry <- read_csv("GlobalLandTemperaturesByCountry.csv")
unique(globalTemperaturesByCountry %>% select(Country))

# A tibble: 243 x 1
   Country       
   <chr>         
 1 land         
 2 Afghanistan   
 3 Africa        
 4 Albania       
 5 Algeria       
 6 American Samoa
 7 Andorra       
 8 Angola        
 9 Anguilla      
10 Antarctica    
# ... with 233 more rows
…
